<svg width="593" height="26" viewBox="0 0 593 26" fill="none" xmlns="http://www.w3.org/2000/svg">
<path d="M30 17.9988L32.9998 8.00001L62.9999 8.00001L60 17.9988L30 17.9988Z" fill="#364693" fill-opacity="0.9"/>
<path d="M90 17.9988L92.9998 8.00001L123 8.00001L120 17.9988L90 17.9988Z" fill="#364693" fill-opacity="0.9"/>
<path d="M150 17.9988L153 8.00001L183 8.00001L180 17.9988L150 17.9988Z" fill="#364693" fill-opacity="0.9"/>
<path d="M210 17.9988L213 8.00001L243 8.00001L240 17.9988L210 17.9988Z" fill="#364693" fill-opacity="0.9"/>
<path d="M270 17.9988L273 8.00001L303 8.00001L300 17.9988L270 17.9988Z" fill="#364693" fill-opacity="0.9"/>
<path d="M330 17.9988L333 8.00001L363 8.00001L360 17.9988L330 17.9988Z" fill="#364693" fill-opacity="0.9"/>
<path d="M390 17.9988L393 8.00001L423 8.00001L420 17.9988L390 17.9988Z" fill="#364693" fill-opacity="0.9"/>
<path d="M450 17.9988L453 8.00001L483 8.00001L480 17.9988L450 17.9988Z" fill="#364693" fill-opacity="0.9"/>
<path d="M510 17.9988L513 8.00001L543 8.00001L540 17.9988L510 17.9988Z" fill="#364693" fill-opacity="0.9"/>
<path d="M570 17.9988L573 8.00001L593 8.00001L593 17.9988L570 17.9988Z" fill="#364693" fill-opacity="0.9"/>
<path d="M3.00008 17.9986L3.00015 7.99999L33.0001 7.99999L30.0001 17.9986L3.00008 17.9986Z" fill="#DA1E26" fill-opacity="0.9"/>
<path d="M60 17.9987L62.9999 7.99996L93 8.00002L90 17.9987L60 17.9987Z" fill="#DA1E26" fill-opacity="0.9"/>
<path d="M120 17.9987L123 7.99996L153 8.00002L150 17.9987L120 17.9987Z" fill="#DA1E26" fill-opacity="0.9"/>
<path d="M180 17.9987L183 7.99996L213 8.00002L210 17.9987L180 17.9987Z" fill="#DA1E26" fill-opacity="0.9"/>
<path d="M240 17.9987L243 7.99996L273 8.00002L270 17.9987L240 17.9987Z" fill="#DA1E26" fill-opacity="0.9"/>
<path d="M300 17.9987L303 7.99996L333 8.00002L330 17.9987L300 17.9987Z" fill="#DA1E26" fill-opacity="0.9"/>
<path d="M360 17.9987L363 7.99996L393 8.00002L390 17.9987L360 17.9987Z" fill="#DA1E26" fill-opacity="0.9"/>
<path d="M420 17.9987L423 7.99996L453 8.00002L450 17.9987L420 17.9987Z" fill="#DA1E26" fill-opacity="0.9"/>
<path d="M480 17.9987L483 7.99996L513 8.00002L510 17.9987L480 17.9987Z" fill="#DA1E26" fill-opacity="0.9"/>
<path d="M540 17.9987L543 7.99996L573 8.00002L570 17.9987L540 17.9987Z" fill="#DA1E26" fill-opacity="0.9"/>
</svg>
